{
  "$schema": "https://schema.management.azure.com/schemas/2015-01-01/deploymentParameters.json#",
  "contentVersion": "1.0.0.0",
  "parameters": {
    "WebAppDeploy-WarsawUM.ThreatsPackageFolder": {
      "value": "WarsawUM.Threats"
    },
    "WebAppDeploy-WarsawUM.ThreatsPackageFileName": {
      "value": "package.zip"
    },
    "serviceOwner": {
      "value": "Patryk Suchowierski"
    },
    "warsawApiUrlSetting": {
      "value": "https://api.um.warszawa.pl"
    },
    "warsawApiKey": {
      "value": "ca316783-3197-4647-9426-557e2f810796"
    },
    "resourceName": {
      "value": "WarsawUM-Threats"
    },
    "environmentType": {
      "value": "Test"
    }
  }
}